com\project\microservices\inventoryservice\service\InventoryService.class
com\project\microservices\inventoryservice\Model\Inventory.class
com\project\microservices\inventoryservice\controller\InventoryController.class
com\project\microservices\inventoryservice\repository\InventoryRepository.class
com\project\microservices\inventoryservice\InventoryServiceApplication.class
